<svg xmlns="http://www.w3.org/2000/svg" width="10.063" height="15.72" viewBox="0 0 10.063 15.72">
  <defs>
    <style>
      .cls-1 {
        fill: none;
        stroke: #fff;
        stroke-width: 3px;
        fill-rule: evenodd;
      }
    </style>
  </defs>
  <path id="_" data-name="&gt;" class="cls-1" d="M960.7,1359.7l6.9,6.82-6.78,6.78" transform="translate(-959.656 -1358.62)"/>
</svg>
