<svg xmlns="http://www.w3.org/2000/svg" width="18" height="18" viewBox="0 0 18 18">
  <defs>
    <style>
      .cls-1 {
        fill: #fff;
        fill-rule: evenodd;
      }
    </style>
  </defs>
  <path id="basket" class="cls-1" d="M44.5,21h-9c-1.657,0-2.5,1.093-2.5,2.75V26a2.993,2.993,0,0,0,.405,1.5h1.141a2.239,2.239,0,0,1-.578-1.5V23.75c0-1.237.294-1.75,1.531-1.75h9c1.237,0,1.5.512,1.5,1.75V26a2.239,2.239,0,0,1-.578,1.5H46.6A2.993,2.993,0,0,0,47,26V23.75C47,22.093,46.158,21,44.5,21Zm-2.25,2.031h-4.5a0.75,0.75,0,0,1-.75-0.75V20.75A0.75,0.75,0,0,1,37.75,20h4.5a0.75,0.75,0,0,1,.75.75v1.531A0.75,0.75,0,0,1,42.25,23.031ZM45.547,38H34.453a2.237,2.237,0,0,1-2.2-1.762l-1.225-6.265A1.426,1.426,0,0,1,31,29.668V27.5A1.5,1.5,0,0,1,32.5,26h15A1.5,1.5,0,0,1,49,27.5v2.168a1.494,1.494,0,0,1-.037.329l-1.216,6.223A2.242,2.242,0,0,1,45.547,38ZM33,28v1.668L34.038,35.4a0.741,0.741,0,0,0,.728.568H45.234a0.746,0.746,0,0,0,.733-0.587l1.061-5.7,0-1.686H33Zm16,3H32V30H49v1Z" transform="translate(-31 -20)"/>
</svg>
