<svg xmlns="http://www.w3.org/2000/svg" width="42" height="42" viewBox="0 0 43 43">
  <defs>
    <style>
      .cls-1 {
        fill: none;
        stroke: #0cf;
        stroke-linecap: round;
        stroke-width: 1px;
        stroke-dasharray: 0.001 2;
      }
      .cls-2 {
        stroke: #ec3030;
      }
    </style>
  </defs>
  <circle class="cls-1" cx="21.5" cy="21" r="20.5"/>
</svg>
